// Vitest Snapshot v1

exports[`Header > should match snapshot 1`] = `
"<header>
  <nav class=\\"px-6 pt-4 pb-6 bg-white border-gray-200 dark:bg-gray-800 dark:border-gray-700\\">
    <div class=\\"container flex flex-wrap justify-between items-center mx-auto\\">
      <logo-stub></logo-stub>
      <mobile-menu-button-stub togglemobilemenu=\\"() => isMobileMenuOpen.value = !isMobileMenuOpen.value\\" ismobilemenuopen=\\"false\\"></mobile-menu-button-stub>
      <mobile-menu-stub ismobilemenuopen=\\"false\\"></mobile-menu-stub>
    </div>
  </nav>
</header>"
`;
