// Vitest Snapshot v1

exports[`MobileMenu > should match snapshot 1`] = `
"<div class=\\"w-full md:block md:w-auto\\">
  <ul class=\\"flex flex-col mt-4 md:hidden\\"><a href=\\"/\\" class=\\"\\">
      <li class=\\"block py-2 pr-4 pl-3 text-gray-700 hover:bg-gray-50 md:hidden\\">Home</li>
    </a><a href=\\"/winners\\" class=\\"\\">
      <li class=\\"block py-2 pr-4 pl-3 text-gray-700 hover:bg-gray-50 md:hidden\\">Lottery</li>
    </a></ul>
</div>
<!--v-if-->"
`;

exports[`MobileMenu > should match snapshot if mobile menu is closed 1`] = `
"<!--v-if-->
<div class=\\"hidden w-full md:block md:w-auto\\" id=\\"mobile-menu\\">
  <ul class=\\"flex flex-col mt-4 md:flex-row md:space-x-8 md:mt-0 md:text-sm md:font-medium\\"><a href=\\"/\\" class=\\"\\">
      <li class=\\"block py-2 pr-4 pl-3 text-white bg-blue-700 rounded md:bg-transparent md:text-blue-700 md:p-0 md:dark:text-white dark:bg-blue-600 md:dark:bg-transparent\\">Home</li>
    </a><a href=\\"/winners\\" class=\\"\\">
      <li class=\\"block py-2 pr-4 pl-3 text-white bg-blue-700 rounded md:bg-transparent md:text-blue-700 md:p-0 md:dark:text-white dark:bg-blue-600 md:dark:bg-transparent\\">Lottery</li>
    </a></ul>
</div>"
`;
