{
  "date": "Feb 11 2022",
  "additionalNumbers": ["3", "10"],
  "gameAmount": "4584808000",
  "jackpot": "20000000",
  "shares": [],
  "numbers": ["5", "10", "26", "37", "42"],
  "powerPlay": "",
  "megaPlier": "",
  "odds": [
    {
      "link": "",
      "numberOfWinners": "0",
      "numbers": [],
      "odd": "3200000000",
      "winningClass": 1,
      "withOptions": [],
      "__typename": "modelOdd"
    },
    {
      "link": "",
      "numberOfWinners": "3",
      "numbers": [],
      "odd": "64951440",
      "winningClass": 2,
      "withOptions": [],
      "__typename": "modelOdd"
    },
    {
      "link": "",
      "numberOfWinners": "6",
      "numbers": [],
      "odd": "11462020",
      "winningClass": 3,
      "withOptions": [],
      "__typename": "modelOdd"
    },
    {
      "link": "",
      "numberOfWinners": "45",
      "numbers": [],
      "odd": "509420",
      "winningClass": 4,
      "withOptions": [],
      "__typename": "modelOdd"
    },
    {
      "link": "",
      "numberOfWinners": "792",
      "numbers": [],
      "odd": "26050",
      "winningClass": 5,
      "withOptions": [],
      "__typename": "modelOdd"
    },
    {
      "link": "",
      "numberOfWinners": "1443",
      "numbers": [],
      "odd": "11120",
      "winningClass": 6,
      "withOptions": [],
      "__typename": "modelOdd"
    },
    {
      "link": "",
      "numberOfWinners": "1877",
      "numbers": [],
      "odd": "7320",
      "winningClass": 7,
      "withOptions": [],
      "__typename": "modelOdd"
    },
    {
      "link": "",
      "numberOfWinners": "28481",
      "numbers": [],
      "odd": "2490",
      "winningClass": 8,
      "withOptions": [],
      "__typename": "modelOdd"
    },
    {
      "link": "",
      "numberOfWinners": "36146",
      "numbers": [],
      "odd": "1900",
      "winningClass": 9,
      "withOptions": [],
      "__typename": "modelOdd"
    },
    {
      "link": "",
      "numberOfWinners": "63901",
      "numbers": [],
      "odd": "1540",
      "winningClass": 10,
      "withOptions": [],
      "__typename": "modelOdd"
    },
    {
      "link": "",
      "numberOfWinners": "150277",
      "numbers": [],
      "odd": "1180",
      "winningClass": 11,
      "withOptions": [],
      "__typename": "modelOdd"
    },
    {
      "link": "",
      "numberOfWinners": "538054",
      "numbers": [],
      "odd": "810",
      "winningClass": 12,
      "withOptions": [],
      "__typename": "modelOdd"
    }
  ],
  "rollDown": false,
  "__typename": "modelDraw"
}
